<svg width="17" height="12" viewBox="0 0 17 12" fill="none" xmlns="http://www.w3.org/2000/svg">
<path d="M12 11.2L16 7.20001L12 3.20001" stroke="#ffff" stroke-width="0.8"/>
<path d="M0 7.20001H16" stroke="#ffff" stroke-width="0.8"/>
</svg>
