<svg width="21" height="21" viewBox="0 0 21 21" fill="none" xmlns="http://www.w3.org/2000/svg">
<path d="M1 1L20.3726 20.3726" stroke="#3A3A3F"/>
<path d="M20.373 1L1.00047 20.3726" stroke="#3A3A3F"/>
</svg>
